^D:\PROJECTS\C AND CPP\FACE DETECTION\FACE_DETECTION\FACE_DETECTION\X64\DEBUG\FACE_DETECTOR.OBJ
D:\PROJECTS\C AND CPP\FACE DETECTION\FACE_DETECTION\X64\DEBUG\FACE_DETECTION.EXE
D:\PROJECTS\C AND CPP\FACE DETECTION\FACE_DETECTION\X64\DEBUG\FACE_DETECTION.ILK
D:\PROJECTS\C AND CPP\FACE DETECTION\FACE_DETECTION\X64\DEBUG\FACE_DETECTION.PDB
