^D:\PROJECTS\C AND CPP\FACE DETECTION\FACE_DETECTION\FACE_DETECTION\X64\RELEASE\FACE_DETECTOR.OBJ
D:\PROJECTS\C AND CPP\FACE DETECTION\FACE_DETECTION\X64\RELEASE\FACE_DETECTION.EXE
D:\PROJECTS\C AND CPP\FACE DETECTION\FACE_DETECTION\X64\RELEASE\FACE_DETECTION.PDB
